{"delete":{"status":{"id":486284493599154177,"user_id":893877948,"id_str":"486284493599154177","user_id_str":"893877948"}}}
{"created_at":"Mon Jul 07 23:19:40 +0000 2014","id":486288469824913408,"id_str":"486288469824913408","text":"RT @MayaAMonroe: @daaaily_jones ilym gorgeous \ud83d\ude0d\ud83d\ude0d\ud83d\ude0d\ud83d\ude0d","source":"\u003ca href=\"http:\/\/twitter.com\/#!\/download\/ipad\" rel=\"nofollow\"\u003eTwitter for iPad\u003c\/a\u003e","truncated":false,"in_reply_to_status_id":null,"in_reply_to_status_id_str":null,"in_reply_to_user_id":null,"in_reply_to_user_id_str":null,"in_reply_to_screen_name":null,"user":{"id":2204143429,"id_str":"2204143429","name":"\u262f\u2661\u21ca\u2741\u271d","screen_name":"daaaily_jones","location":"HNL-DMV","url":"http:\/\/ask.fm\/TheDaaailyJones","description":"Chef to be. Senior class of 2015. Hayfield.","protected":false,"followers_count":189,"friends_count":142,"listed_count":1,"created_at":"Wed Nov 20 02:54:29 +0000 2013","favourites_count":9462,"utc_offset":null,"time_zone":null,"geo_enabled":false,"verified":false,"statuses_count":3661,"lang":"en","contributors_enabled":false,"is_translator":false,"is_translation_enabled":false,"profile_background_color":"C0DEED","profile_background_image_url":"http:\/\/abs.twimg.com\/images\/themes\/theme1\/bg.png","profile_background_image_url_https":"https:\/\/abs.twimg.com\/images\/themes\/theme1\/bg.png","profile_background_tile":false,"profile_image_url":"http:\/\/pbs.twimg.com\/profile_images\/484408306925309952\/wkECbApp_normal.jpeg","profile_image_url_https":"https:\/\/pbs.twimg.com\/profile_images\/484408306925309952\/wkECbApp_normal.jpeg","profile_banner_url":"https:\/\/pbs.twimg.com\/profile_banners\/2204143429\/1403096248","profile_link_color":"0084B4","profile_sidebar_border_color":"C0DEED","profile_sidebar_fill_color":"DDEEF6","profile_text_color":"333333","profile_use_background_image":true,"default_profile":true,"default_profile_image":false,"following":null,"follow_request_sent":null,"notifications":null},"geo":null,"coordinates":null,"place":null,"contributors":null,"retweeted_status":{"created_at":"Mon Jul 07 23:03:05 +0000 2014","id":486284295015632896,"id_str":"486284295015632896","text":"@daaaily_jones ilym gorgeous \ud83d\ude0d\ud83d\ude0d\ud83d\ude0d\ud83d\ude0d","source":"\u003ca href=\"http:\/\/twitter.com\/download\/iphone\" rel=\"nofollow\"\u003eTwitter for iPhone\u003c\/a\u003e","truncated":false,"in_reply_to_status_id":486244876431151104,"in_reply_to_status_id_str":"486244876431151104","in_reply_to_user_id":2204143429,"in_reply_to_user_id_str":"2204143429","in_reply_to_screen_name":"daaaily_jones","user":{"id":147279619,"id_str":"147279619","name":"Maya Angelique","screen_name":"MayaAMonroe","location":"trap","url":null,"description":"#MSU18","protected":false,"followers_count":3285,"friends_count":3497,"listed_count":6,"created_at":"Sun May 23 18:06:28 +0000 2010","favourites_count":8159,"utc_offset":-18000,"time_zone":"Central Time (US & Canada)","geo_enabled":true,"verified":false,"statuses_count":60940,"lang":"en","contributors_enabled":false,"is_translator":false,"is_translation_enabled":false,"profile_background_color":"FF001E","profile_background_image_url":"http:\/\/pbs.twimg.com\/profile_background_images\/681694050\/658db3d57b4cb0189fe480d925443efe.png","profile_background_image_url_https":"https:\/\/pbs.twimg.com\/profile_background_images\/681694050\/658db3d57b4cb0189fe480d925443efe.png","profile_background_tile":true,"profile_image_url":"http:\/\/pbs.twimg.com\/profile_images\/427472139537506304\/DQRJcd1Z_normal.jpeg","profile_image_url_https":"https:\/\/pbs.twimg.com\/profile_images\/427472139537506304\/DQRJcd1Z_normal.jpeg","profile_banner_url":"https:\/\/pbs.twimg.com\/profile_banners\/147279619\/1401822876","profile_link_color":"FA2D2D","profile_sidebar_border_color":"FFFFFF","profile_sidebar_fill_color":"EBDDEB","profile_text_color":"6ABA93","profile_use_background_image":true,"default_profile":false,"default_profile_image":false,"following":null,"follow_request_sent":null,"notifications":null},"geo":null,"coordinates":null,"place":null,"contributors":null,"retweet_count":1,"favorite_count":1,"entities":{"hashtags":[],"symbols":[],"urls":[],"user_mentions":[{"screen_name":"daaaily_jones","name":"\u262f\u2661\u21ca\u2741\u271d","id":2204143429,"id_str":"2204143429","indices":[0,14]}]},"favorited":false,"retweeted":false,"lang":"en"},"retweet_count":0,"favorite_count":0,"entities":{"hashtags":[],"symbols":[],"urls":[],"user_mentions":[{"screen_name":"MayaAMonroe","name":"Maya Angelique","id":147279619,"id_str":"147279619","indices":[3,15]},{"screen_name":"daaaily_jones","name":"\u262f\u2661\u21ca\u2741\u271d","id":2204143429,"id_str":"2204143429","indices":[17,31]}]},"favorited":false,"retweeted":false,"filter_level":"medium","lang":"en"}
{"delete":{"status":{"id":486280399983620097,"user_id":2599637172,"id_str":"486280399983620097","user_id_str":"2599637172"}}}
{"delete":{"status":{"id":486282027365171202,"user_id":2467477393,"id_str":"486282027365171202","user_id_str":"2467477393"}}}
{"delete":{"status":{"id":486284787225616385,"user_id":989520439,"id_str":"486284787225616385","user_id_str":"989520439"}}}
{"delete":{"status":{"id":486287874203975680,"user_id":403851072,"id_str":"486287874203975680","user_id_str":"403851072"}}}
{"delete":{"status":{"id":486219322516201472,"user_id":2212474285,"id_str":"486219322516201472","user_id_str":"2212474285"}}}
{"created_at":"Mon Jul 07 23:19:41 +0000 2014","id":486288473985282050,"id_str":"486288473985282050","text":"\u5b66\u751f\u304b","source":"\u003ca href=\"http:\/\/twitter.com\/download\/iphone\" rel=\"nofollow\"\u003eTwitter for iPhone\u003c\/a\u003e","truncated":false,"in_reply_to_status_id":null,"in_reply_to_status_id_str":null,"in_reply_to_user_id":null,"in_reply_to_user_id_str":null,"in_reply_to_screen_name":null,"user":{"id":70365473,"id_str":"70365473","name":"\u308a\u3087\u3093\u3053","screen_name":"mo27be","location":"\u798f\u5ca1","url":"http:\/\/twpf.jp\/mo27be","description":"TOE \/ Perfume (pta) \/ \u30a2\u30a4\u30ab\u30c4 \/ \u53ef\u611b\u3044\u5973\u306e\u5b50 \u305d\u306e\u4ed6\u8af8\u3005\u3067\u751f\u304d\u308b\u304a\u3063\u3055\u3093\u8133\u3002\u304a\u305f\u304f\u8a9e\u308a\u65e5\u5e38\u545f\u304d\u8272\u3005\u3002\u3050\u308b\u3093\u3050\u308b\u3093\u5e83\u5cf62\u65e5\u76ee\u3001\u798f\u5ca11\u30012\u65e5\u76ee","protected":false,"followers_count":108,"friends_count":134,"listed_count":9,"created_at":"Mon Aug 31 10:55:48 +0000 2009","favourites_count":2075,"utc_offset":32400,"time_zone":"Tokyo","geo_enabled":false,"verified":false,"statuses_count":9206,"lang":"ja","contributors_enabled":false,"is_translator":false,"is_translation_enabled":false,"profile_background_color":"709397","profile_background_image_url":"http:\/\/abs.twimg.com\/images\/themes\/theme6\/bg.gif","profile_background_image_url_https":"https:\/\/abs.twimg.com\/images\/themes\/theme6\/bg.gif","profile_background_tile":false,"profile_image_url":"http:\/\/pbs.twimg.com\/profile_images\/471063128029933568\/CQo-ArTT_normal.jpeg","profile_image_url_https":"https:\/\/pbs.twimg.com\/profile_images\/471063128029933568\/CQo-ArTT_normal.jpeg","profile_link_color":"FF3300","profile_sidebar_border_color":"86A4A6","profile_sidebar_fill_color":"A0C5C7","profile_text_color":"333333","profile_use_background_image":true,"default_profile":false,"default_profile_image":false,"following":null,"follow_request_sent":null,"notifications":null},"geo":null,"coordinates":null,"place":null,"contributors":null,"retweet_count":0,"favorite_count":0,"entities":{"hashtags":[],"symbols":[],"urls":[],"user_mentions":[]},"favorited":false,"retweeted":false,"filter_level":"medium","lang":"ja"}
{"created_at":"Mon Jul 07 23:19:41 +0000 2014","id":486288474002046976,"id_str":"486288474002046976","text":"Bonded with mother over making dumplings and she accepts my pescatarianism \ud83d\ude0a\nAlso, I am now a dumpling making expert.","source":"\u003ca href=\"http:\/\/twitter.com\/download\/iphone\" rel=\"nofollow\"\u003eTwitter for iPhone\u003c\/a\u003e","truncated":false,"in_reply_to_status_id":null,"in_reply_to_status_id_str":null,"in_reply_to_user_id":null,"in_reply_to_user_id_str":null,"in_reply_to_screen_name":null,"user":{"id":535694148,"id_str":"535694148","name":"GH","screen_name":"gracehuynhxo","location":"","url":null,"description":"Don't depend on the branch to support you, trust in your wings to lift you.","protected":false,"followers_count":137,"friends_count":126,"listed_count":1,"created_at":"Sat Mar 24 18:50:56 +0000 2012","favourites_count":9176,"utc_offset":-25200,"time_zone":"Arizona","geo_enabled":true,"verified":false,"statuses_count":12873,"lang":"en","contributors_enabled":false,"is_translator":false,"is_translation_enabled":false,"profile_background_color":"1EC9AA","profile_background_image_url":"http:\/\/abs.twimg.com\/images\/themes\/theme18\/bg.gif","profile_background_image_url_https":"https:\/\/abs.twimg.com\/images\/themes\/theme18\/bg.gif","profile_background_tile":false,"profile_image_url":"http:\/\/pbs.twimg.com\/profile_images\/461612738855194624\/BOWB8SdI_normal.jpeg","profile_image_url_https":"https:\/\/pbs.twimg.com\/profile_images\/461612738855194624\/BOWB8SdI_normal.jpeg","profile_banner_url":"https:\/\/pbs.twimg.com\/profile_banners\/535694148\/1404281601","profile_link_color":"EB65B6","profile_sidebar_border_color":"C0DEED","profile_sidebar_fill_color":"DDEEF6","profile_text_color":"333333","profile_use_background_image":true,"default_profile":false,"default_profile_image":false,"following":null,"follow_request_sent":null,"notifications":null},"geo":null,"coordinates":null,"place":null,"contributors":null,"retweet_count":0,"favorite_count":0,"entities":{"hashtags":[],"symbols":[],"urls":[],"user_mentions":[]},"favorited":false,"retweeted":false,"filter_level":"medium","lang":"en"}
{"created_at":"Mon Jul 07 23:19:41 +0000 2014","id":486288473989472257,"id_str":"486288473989472257","text":"Nice, looking fwd to the legend of Hercules re-enacted in a completely American accent. #plstryharder #therock #herculeselbow","source":"\u003ca href=\"http:\/\/twitter.com\/#!\/download\/ipad\" rel=\"nofollow\"\u003eTwitter for iPad\u003c\/a\u003e","truncated":false,"in_reply_to_status_id":null,"in_reply_to_status_id_str":null,"in_reply_to_user_id":null,"in_reply_to_user_id_str":null,"in_reply_to_screen_name":null,"user":{"id":402346058,"id_str":"402346058","name":"Hibah Ahmed","screen_name":"AhmedHibah","location":"Singapore\/Toronto","url":null,"description":"Married with three cats. Travel bug patient.","protected":false,"followers_count":50,"friends_count":76,"listed_count":0,"created_at":"Mon Oct 31 22:47:52 +0000 2011","favourites_count":15,"utc_offset":28800,"time_zone":"Kuala Lumpur","geo_enabled":false,"verified":false,"statuses_count":115,"lang":"en","contributors_enabled":false,"is_translator":false,"is_translation_enabled":false,"profile_background_color":"6F1F04","profile_background_image_url":"http:\/\/pbs.twimg.com\/profile_background_images\/356209324\/twitter.jpg","profile_background_image_url_https":"https:\/\/pbs.twimg.com\/profile_background_images\/356209324\/twitter.jpg","profile_background_tile":false,"profile_image_url":"http:\/\/pbs.twimg.com\/profile_images\/378800000534164761\/2cfd1afdcf81a1976d1d25b36c23980b_normal.jpeg","profile_image_url_https":"https:\/\/pbs.twimg.com\/profile_images\/378800000534164761\/2cfd1afdcf81a1976d1d25b36c23980b_normal.jpeg","profile_banner_url":"https:\/\/pbs.twimg.com\/profile_banners\/402346058\/1380515953","profile_link_color":"910303","profile_sidebar_border_color":"80704C","profile_sidebar_fill_color":"EEEBDA","profile_text_color":"000000","profile_use_background_image":true,"default_profile":false,"default_profile_image":false,"following":null,"follow_request_sent":null,"notifications":null},"geo":null,"coordinates":null,"place":null,"contributors":null,"retweet_count":0,"favorite_count":0,"entities":{"hashtags":[{"text":"plstryharder","indices":[88,101]},{"text":"therock","indices":[102,110]},{"text":"herculeselbow","indices":[111,125]}],"symbols":[],"urls":[],"user_mentions":[]},"favorited":false,"retweeted":false,"filter_level":"medium","lang":"en"}
{"delete":{"status":{"id":455838137324154880,"user_id":200580656,"id_str":"455838137324154880","user_id_str":"200580656"}}}
{"created_at":"Mon Jul 07 23:19:41 +0000 2014","id":486288474010427392,"id_str":"486288474010427392","text":"\u6700\u5f8c\u306b\u3061\u3087\u3063\u3068\u3060\u3051\u6975\u30e2\u30b0\u3044\u3053\u3063\u3068\u30fb\u30fb\u30fb","source":"\u003ca href=\"http:\/\/twipple.jp\/\" rel=\"nofollow\"\u003e\u3064\u3044\u3063\u3077\u308b\u3000\u003c\/a\u003e","truncated":false,"in_reply_to_status_id":null,"in_reply_to_status_id_str":null,"in_reply_to_user_id":null,"in_reply_to_user_id_str":null,"in_reply_to_screen_name":null,"user":{"id":2360464279,"id_str":"2360464279","name":"Hand@FF14","screen_name":"Hand_FF14","location":"","url":null,"description":"FF14 Asura\u9bd6\u3067\u6d3b\u52d5\u4e2d\u306e\u65b0\u4eba\u3000\u3000\u6642\u3005\u95a2\u4fc2\u306a\u3044\u3053\u3068\u3082\u545f\u304f\u3068\u601d\u3046\u3051\u3069\u3088\u308d\u3057\u304f\u306d\uff01","protected":false,"followers_count":30,"friends_count":34,"listed_count":0,"created_at":"Tue Feb 25 03:53:58 +0000 2014","favourites_count":89,"utc_offset":null,"time_zone":null,"geo_enabled":false,"verified":false,"statuses_count":1793,"lang":"ja","contributors_enabled":false,"is_translator":false,"is_translation_enabled":false,"profile_background_color":"C0DEED","profile_background_image_url":"http:\/\/abs.twimg.com\/images\/themes\/theme1\/bg.png","profile_background_image_url_https":"https:\/\/abs.twimg.com\/images\/themes\/theme1\/bg.png","profile_background_tile":false,"profile_image_url":"http:\/\/pbs.twimg.com\/profile_images\/438161817127235584\/nJ5X1xBJ_normal.png","profile_image_url_https":"https:\/\/pbs.twimg.com\/profile_images\/438161817127235584\/nJ5X1xBJ_normal.png","profile_link_color":"0084B4","profile_sidebar_border_color":"C0DEED","profile_sidebar_fill_color":"DDEEF6","profile_text_color":"333333","profile_use_background_image":true,"default_profile":true,"default_profile_image":false,"following":null,"follow_request_sent":null,"notifications":null},"geo":null,"coordinates":null,"place":null,"contributors":null,"retweet_count":0,"favorite_count":0,"entities":{"hashtags":[],"symbols":[],"urls":[],"user_mentions":[]},"favorited":false,"retweeted":false,"filter_level":"medium","lang":"ja"}
{"created_at":"Mon Jul 07 23:19:41 +0000 2014","id":486288473989472258,"id_str":"486288473989472258","text":"Fabi\u00e1n Manuk - Solo Con Tu Nombre: http:\/\/t.co\/yV4fBOwPUu v\u00eda @YouTube no puedo parar de reproducirlo \u2665 @FABIANMANUK","source":"\u003ca href=\"https:\/\/dev.twitter.com\/docs\/tfw\" rel=\"nofollow\"\u003eTwitter for Websites\u003c\/a\u003e","truncated":false,"in_reply_to_status_id":null,"in_reply_to_status_id_str":null,"in_reply_to_user_id":null,"in_reply_to_user_id_str":null,"in_reply_to_screen_name":null,"user":{"id":188014400,"id_str":"188014400","name":"Ceeci \u265b","screen_name":"Ceci_Montenegro","location":"Arshentina","url":null,"description":"\u201cIf you judge people, you have no time to love them.\u201d #Belieber since 2O1O","protected":false,"followers_count":633,"friends_count":560,"listed_count":1,"created_at":"Tue Sep 07 18:34:52 +0000 2010","favourites_count":904,"utc_offset":-10800,"time_zone":"Buenos Aires","geo_enabled":false,"verified":false,"statuses_count":21395,"lang":"es","contributors_enabled":false,"is_translator":false,"is_translation_enabled":false,"profile_background_color":"ACDED6","profile_background_image_url":"http:\/\/pbs.twimg.com\/profile_background_images\/457999203663241216\/NPgfNO4v.jpeg","profile_background_image_url_https":"https:\/\/pbs.twimg.com\/profile_background_images\/457999203663241216\/NPgfNO4v.jpeg","profile_background_tile":true,"profile_image_url":"http:\/\/pbs.twimg.com\/profile_images\/483130019279941632\/EfsQ5nPV_normal.jpeg","profile_image_url_https":"https:\/\/pbs.twimg.com\/profile_images\/483130019279941632\/EfsQ5nPV_normal.jpeg","profile_banner_url":"https:\/\/pbs.twimg.com\/profile_banners\/188014400\/1398029921","profile_link_color":"1E97D4","profile_sidebar_border_color":"FFFFFF","profile_sidebar_fill_color":"F6F6F6","profile_text_color":"333333","profile_use_background_image":true,"default_profile":false,"default_profile_image":false,"following":null,"follow_request_sent":null,"notifications":null},"geo":null,"coordinates":null,"place":null,"contributors":null,"retweet_count":0,"favorite_count":0,"entities":{"hashtags":[],"symbols":[],"urls":[{"url":"http:\/\/t.co\/yV4fBOwPUu","expanded_url":"http:\/\/youtu.be\/9MvrxThXvy4","display_url":"youtu.be\/9MvrxThXvy4","indices":[35,57]}],"user_mentions":[{"screen_name":"YouTube","name":"YouTube","id":10228272,"id_str":"10228272","indices":[62,70]},{"screen_name":"fabianmanuk","name":"Fabian Manuk","id":233359547,"id_str":"233359547","indices":[104,116]}]},"favorited":false,"retweeted":false,"possibly_sensitive":false,"filter_level":"medium","lang":"es"}
{"created_at":"Mon Jul 07 23:19:41 +0000 2014","id":486288473985282051,"id_str":"486288473985282051","text":"@ADAlEmarat \u0623\u0646\u0627 \u0635\u0648\u062a \u0644\u0645\u0631\u064a\u0645 \u0645\u0646 \u0645\u0633\u0644\u0633\u0644 \u0627\u0644\u0633\u064a\u062f\u0629 \u0627\u0644\u0623\u0648\u0644\u0649 \u0643\u0623\u0643\u062b\u0631 \u0634\u062e\u0635\u064a\u0629 \u0634\u0631\u064a\u0631\u0629 #\u0645\u0631\u064a\u0645_\u0634\u0631\u064a\u0631\u0629 \"\"\/\/\/\"","source":"\u003ca href=\"http:\/\/twitter.com\/download\/android\" rel=\"nofollow\"\u003eTwitter for Android\u003c\/a\u003e","truncated":false,"in_reply_to_status_id":486225889214996482,"in_reply_to_status_id_str":"486225889214996482","in_reply_to_user_id":305506262,"in_reply_to_user_id_str":"305506262","in_reply_to_screen_name":"ADAlEmarat","user":{"id":532426575,"id_str":"532426575","name":"Shroof_95","screen_name":"ShaRreeFa","location":"DXB","url":null,"description":"\u007b \u0627\u200b\u200b\u0644\u062d\u064e\u0645\u062f\u0644\u0644\u0651\u0647 \u007d\u00ab","protected":false,"followers_count":41,"friends_count":106,"listed_count":0,"created_at":"Wed Mar 21 16:04:37 +0000 2012","favourites_count":8,"utc_offset":null,"time_zone":null,"geo_enabled":false,"verified":false,"statuses_count":6274,"lang":"en","contributors_enabled":false,"is_translator":false,"is_translation_enabled":false,"profile_background_color":"C0DEED","profile_background_image_url":"http:\/\/abs.twimg.com\/images\/themes\/theme1\/bg.png","profile_background_image_url_https":"https:\/\/abs.twimg.com\/images\/themes\/theme1\/bg.png","profile_background_tile":false,"profile_image_url":"http:\/\/pbs.twimg.com\/profile_images\/378800000263459352\/c8cb07841583e2108ae6b5fe521031e8_normal.jpeg","profile_image_url_https":"https:\/\/pbs.twimg.com\/profile_images\/378800000263459352\/c8cb07841583e2108ae6b5fe521031e8_normal.jpeg","profile_link_color":"0084B4","profile_sidebar_border_color":"C0DEED","profile_sidebar_fill_color":"DDEEF6","profile_text_color":"333333","profile_use_background_image":true,"default_profile":true,"default_profile_image":false,"following":null,"follow_request_sent":null,"notifications":null},"geo":null,"coordinates":null,"place":null,"contributors":null,"retweet_count":0,"favorite_count":0,"entities":{"hashtags":[{"text":"\u0645\u0631\u064a\u0645_\u0634\u0631\u064a\u0631\u0629","indices":[67,78]}],"symbols":[],"urls":[],"user_mentions":[{"screen_name":"ADAlEmarat","name":"\u0623\u0628\u0648\u0638\u0628\u064a \u0627\u0644\u0625\u0645\u0627\u0631\u0627\u062a","id":305506262,"id_str":"305506262","indices":[0,11]}]},"favorited":false,"retweeted":false,"filter_level":"medium","lang":"ar"}
{"created_at":"Mon Jul 07 23:19:41 +0000 2014","id":486288473989447681,"id_str":"486288473989447681","text":"#gay #gayboy #twink #twins #bff #sexy #fashion #fabulous #famous #iphone #instagay #intelligent\u2026 http:\/\/t.co\/OiSSVadWZ4","source":"\u003ca href=\"http:\/\/instagram.com\" rel=\"nofollow\"\u003eInstagram\u003c\/a\u003e","truncated":false,"in_reply_to_status_id":null,"in_reply_to_status_id_str":null,"in_reply_to_user_id":null,"in_reply_to_user_id_str":null,"in_reply_to_screen_name":null,"user":{"id":2218024472,"id_str":"2218024472","name":"Cory J. Gardiner","screen_name":"corry_cory","location":"Grand Blanc, MI","url":"http:\/\/www.facebook.com\/cjgardiner","description":null,"protected":false,"followers_count":26,"friends_count":20,"listed_count":0,"created_at":"Wed Nov 27 15:58:47 +0000 2013","favourites_count":8,"utc_offset":null,"time_zone":null,"geo_enabled":true,"verified":false,"statuses_count":36,"lang":"en","contributors_enabled":false,"is_translator":false,"is_translation_enabled":false,"profile_background_color":"C0DEED","profile_background_image_url":"http:\/\/abs.twimg.com\/images\/themes\/theme1\/bg.png","profile_background_image_url_https":"https:\/\/abs.twimg.com\/images\/themes\/theme1\/bg.png","profile_background_tile":false,"profile_image_url":"http:\/\/pbs.twimg.com\/profile_images\/448741334690435072\/-u6FqDCm_normal.jpeg","profile_image_url_https":"https:\/\/pbs.twimg.com\/profile_images\/448741334690435072\/-u6FqDCm_normal.jpeg","profile_banner_url":"https:\/\/pbs.twimg.com\/profile_banners\/2218024472\/1395824165","profile_link_color":"0084B4","profile_sidebar_border_color":"C0DEED","profile_sidebar_fill_color":"DDEEF6","profile_text_color":"333333","profile_use_background_image":true,"default_profile":true,"default_profile_image":false,"following":null,"follow_request_sent":null,"notifications":null},"geo":null,"coordinates":null,"place":null,"contributors":null,"retweet_count":0,"favorite_count":0,"entities":{"hashtags":[{"text":"gay","indices":[0,4]},{"text":"gayboy","indices":[5,12]},{"text":"twink","indices":[13,19]},{"text":"twins","indices":[20,26]},{"text":"bff","indices":[27,31]},{"text":"sexy","indices":[32,37]},{"text":"fashion","indices":[38,46]},{"text":"fabulous","indices":[47,56]},{"text":"famous","indices":[57,64]},{"text":"iphone","indices":[65,72]},{"text":"instagay","indices":[73,82]},{"text":"intelligent","indices":[83,95]}],"symbols":[],"urls":[{"url":"http:\/\/t.co\/OiSSVadWZ4","expanded_url":"http:\/\/instagram.com\/p\/qKwQmwvdWt\/","display_url":"instagram.com\/p\/qKwQmwvdWt\/","indices":[97,119]}],"user_mentions":[]},"favorited":false,"retweeted":false,"possibly_sensitive":false,"filter_level":"medium","lang":"en"}
{"created_at":"Mon Jul 07 23:19:41 +0000 2014","id":486288473997864962,"id_str":"486288473997864962","text":"@null \u30e4","source":"\u003ca href=\"http:\/\/twittbot.net\/\" rel=\"nofollow\"\u003etwittbot.net\u003c\/a\u003e","truncated":false,"in_reply_to_status_id":null,"in_reply_to_status_id_str":null,"in_reply_to_user_id":3562471,"in_reply_to_user_id_str":"3562471","in_reply_to_screen_name":"null","user":{"id":2443790432,"id_str":"2443790432","name":"\u3010\u4e88084\u3011\ua4b0\u3042 \u3044 \u308a \u3059\u25cb\ua4b1 ","screen_name":"_mi1kY___","location":"","url":null,"description":"\u3075\u3041\u307c\u3057\u307e\u3059!\u203b@_Iris_Z @_Iris_Y\u306e\u4eba\u3068\u540c\u4e00\u4eba\u7269\u3067\u3059!","protected":false,"followers_count":19,"friends_count":56,"listed_count":1,"created_at":"Mon Apr 14 12:09:01 +0000 2014","favourites_count":43710,"utc_offset":null,"time_zone":null,"geo_enabled":false,"verified":false,"statuses_count":20656,"lang":"ja","contributors_enabled":false,"is_translator":false,"is_translation_enabled":false,"profile_background_color":"C0DEED","profile_background_image_url":"http:\/\/abs.twimg.com\/images\/themes\/theme1\/bg.png","profile_background_image_url_https":"https:\/\/abs.twimg.com\/images\/themes\/theme1\/bg.png","profile_background_tile":false,"profile_image_url":"http:\/\/pbs.twimg.com\/profile_images\/455679988075724800\/N96X8Fms_normal.png","profile_image_url_https":"https:\/\/pbs.twimg.com\/profile_images\/455679988075724800\/N96X8Fms_normal.png","profile_link_color":"CDDB07","profile_sidebar_border_color":"C0DEED","profile_sidebar_fill_color":"DDEEF6","profile_text_color":"333333","profile_use_background_image":true,"default_profile":false,"default_profile_image":false,"following":null,"follow_request_sent":null,"notifications":null},"geo":null,"coordinates":null,"place":null,"contributors":null,"retweet_count":0,"favorite_count":0,"entities":{"hashtags":[],"symbols":[],"urls":[],"user_mentions":[{"screen_name":"null","name":"not quite nothing","id":3562471,"id_str":"3562471","indices":[0,5]}]},"favorited":false,"retweeted":false,"filter_level":"medium","lang":"ja"}
{"created_at":"Mon Jul 07 23:19:41 +0000 2014","id":486288473997860864,"id_str":"486288473997860864","text":"@SigSig_ren \u30b8\u30c8\u5b50\u3055\u3093\u304a\u306f\u3088\u3046\u3054\u3056\u3044\u307e\u30fc\u3059","source":"\u003ca href=\"http:\/\/twitter.com\" rel=\"nofollow\"\u003eTwitter Web Client\u003c\/a\u003e","truncated":false,"in_reply_to_status_id":486288061680992256,"in_reply_to_status_id_str":"486288061680992256","in_reply_to_user_id":304540031,"in_reply_to_user_id_str":"304540031","in_reply_to_screen_name":"SigSig_ren","user":{"id":1120185637,"id_str":"1120185637","name":"\u3061\u306f\u308b\uff08\u547c\u3076\u3068\u304d\u306f\u3061\u30fc\u3061\u3083\u3093\uff09","screen_name":"hamanoki","location":"\u30ea\u30d7\u30e9\u30a4\u5373\u6d88\u3057\u30cb\u30fc\u30c8","url":"http:\/\/www.hatena.ne.jp\/chihama","description":"\u3075\u306b\u3087\u3093\u3075\u306b\u3087\u3093","protected":false,"followers_count":698,"friends_count":782,"listed_count":108,"created_at":"Fri Jan 25 20:13:26 +0000 2013","favourites_count":92243,"utc_offset":32400,"time_zone":"Tokyo","geo_enabled":false,"verified":false,"statuses_count":10266,"lang":"en","contributors_enabled":false,"is_translator":false,"is_translation_enabled":false,"profile_background_color":"1A1B1F","profile_background_image_url":"http:\/\/abs.twimg.com\/images\/themes\/theme9\/bg.gif","profile_background_image_url_https":"https:\/\/abs.twimg.com\/images\/themes\/theme9\/bg.gif","profile_background_tile":false,"profile_image_url":"http:\/\/pbs.twimg.com\/profile_images\/455930309347794944\/LgTklhcB_normal.png","profile_image_url_https":"https:\/\/pbs.twimg.com\/profile_images\/455930309347794944\/LgTklhcB_normal.png","profile_banner_url":"https:\/\/pbs.twimg.com\/profile_banners\/1120185637\/1397537263","profile_link_color":"2FC2EF","profile_sidebar_border_color":"181A1E","profile_sidebar_fill_color":"252429","profile_text_color":"666666","profile_use_background_image":true,"default_profile":false,"default_profile_image":false,"following":null,"follow_request_sent":null,"notifications":null},"geo":null,"coordinates":null,"place":null,"contributors":null,"retweet_count":0,"favorite_count":0,"entities":{"hashtags":[],"symbols":[],"urls":[],"user_mentions":[{"screen_name":"SigSig_ren","name":"\u3057\u3050\u308c\u30b8\u30c8\u5b50","id":304540031,"id_str":"304540031","indices":[0,11]}]},"favorited":false,"retweeted":false,"filter_level":"medium","lang":"ja"}
{"created_at":"Mon Jul 07 23:19:41 +0000 2014","id":486288474006233089,"id_str":"486288474006233089","text":"Latitude 14 Rugged Extreme en Latinoam\u00e9rica http:\/\/t.co\/mfi8vZAyGY","source":"\u003ca href=\"http:\/\/twitterfeed.com\" rel=\"nofollow\"\u003etwitterfeed\u003c\/a\u003e","truncated":false,"in_reply_to_status_id":null,"in_reply_to_status_id_str":null,"in_reply_to_user_id":null,"in_reply_to_user_id_str":null,"in_reply_to_screen_name":null,"user":{"id":43431665,"id_str":"43431665","name":"TechGames","screen_name":"TechGames","location":"M\u00e9xico","url":"http:\/\/www.techgames.com.mx\/","description":"Amamos la tecnolog\u00eda, nos divierten los videojuegos y de paso el ocio digital.","protected":false,"followers_count":3706,"friends_count":2989,"listed_count":41,"created_at":"Fri May 29 23:11:36 +0000 2009","favourites_count":25,"utc_offset":-18000,"time_zone":"Mexico City","geo_enabled":false,"verified":false,"statuses_count":8691,"lang":"es","contributors_enabled":false,"is_translator":false,"is_translation_enabled":false,"profile_background_color":"131516","profile_background_image_url":"http:\/\/abs.twimg.com\/images\/themes\/theme14\/bg.gif","profile_background_image_url_https":"https:\/\/abs.twimg.com\/images\/themes\/theme14\/bg.gif","profile_background_tile":true,"profile_image_url":"http:\/\/pbs.twimg.com\/profile_images\/272520442\/TechGames-icon_normal.png","profile_image_url_https":"https:\/\/pbs.twimg.com\/profile_images\/272520442\/TechGames-icon_normal.png","profile_banner_url":"https:\/\/pbs.twimg.com\/profile_banners\/43431665\/1399613344","profile_link_color":"FA6C00","profile_sidebar_border_color":"EEEEEE","profile_sidebar_fill_color":"EFEFEF","profile_text_color":"333333","profile_use_background_image":true,"default_profile":false,"default_profile_image":false,"following":null,"follow_request_sent":null,"notifications":null},"geo":null,"coordinates":null,"place":null,"contributors":null,"retweet_count":0,"favorite_count":0,"entities":{"hashtags":[],"symbols":[],"urls":[{"url":"http:\/\/t.co\/mfi8vZAyGY","expanded_url":"http:\/\/bit.ly\/1rJxWR0","display_url":"bit.ly\/1rJxWR0","indices":[44,66]}],"user_mentions":[]},"favorited":false,"retweeted":false,"possibly_sensitive":false,"filter_level":"medium","lang":"es"}
{"created_at":"Mon Jul 07 23:19:41 +0000 2014","id":486288474006233090,"id_str":"486288474006233090","text":"Por Siempre Yo Te Voy A Amarr!! ;)","source":"\u003ca href=\"http:\/\/twitter.com\" rel=\"nofollow\"\u003eTwitter Web Client\u003c\/a\u003e","truncated":false,"in_reply_to_status_id":null,"in_reply_to_status_id_str":null,"in_reply_to_user_id":null,"in_reply_to_user_id_str":null,"in_reply_to_screen_name":null,"user":{"id":2432793025,"id_str":"2432793025","name":"Aguss! ;)","screen_name":"AguusElGatito","location":"","url":null,"description":"Canta Que la vida es una fiestaa! ;)","protected":false,"followers_count":124,"friends_count":310,"listed_count":0,"created_at":"Tue Apr 08 00:33:11 +0000 2014","favourites_count":9,"utc_offset":null,"time_zone":null,"geo_enabled":false,"verified":false,"statuses_count":235,"lang":"es","contributors_enabled":false,"is_translator":false,"is_translation_enabled":false,"profile_background_color":"C0DEED","profile_background_image_url":"http:\/\/abs.twimg.com\/images\/themes\/theme1\/bg.png","profile_background_image_url_https":"https:\/\/abs.twimg.com\/images\/themes\/theme1\/bg.png","profile_background_tile":false,"profile_image_url":"http:\/\/pbs.twimg.com\/profile_images\/455181439693094914\/Mh9XLe3g_normal.jpeg","profile_image_url_https":"https:\/\/pbs.twimg.com\/profile_images\/455181439693094914\/Mh9XLe3g_normal.jpeg","profile_banner_url":"https:\/\/pbs.twimg.com\/profile_banners\/2432793025\/1398384799","profile_link_color":"0084B4","profile_sidebar_border_color":"C0DEED","profile_sidebar_fill_color":"DDEEF6","profile_text_color":"333333","profile_use_background_image":true,"default_profile":true,"default_profile_image":false,"following":null,"follow_request_sent":null,"notifications":null},"geo":null,"coordinates":null,"place":null,"contributors":null,"retweet_count":0,"favorite_count":0,"entities":{"hashtags":[],"symbols":[],"urls":[],"user_mentions":[]},"favorited":false,"retweeted":false,"filter_level":"medium","lang":"es"}
{"created_at":"Mon Jul 07 23:19:41 +0000 2014","id":486288473993666560,"id_str":"486288473993666560","text":"RT @thatboy_evan: Where do I sign up at? http:\/\/t.co\/0hyA6fY94t","source":"\u003ca href=\"http:\/\/twitter.com\/download\/iphone\" rel=\"nofollow\"\u003eTwitter for iPhone\u003c\/a\u003e","truncated":false,"in_reply_to_status_id":null,"in_reply_to_status_id_str":null,"in_reply_to_user_id":null,"in_reply_to_user_id_str":null,"in_reply_to_screen_name":null,"user":{"id":452654636,"id_str":"452654636","name":"Jorge","screen_name":"jostria8394","location":"","url":null,"description":"HOUSTON, TEXAS | college nigga | 19 |","protected":false,"followers_count":216,"friends_count":321,"listed_count":0,"created_at":"Mon Jan 02 03:16:13 +0000 2012","favourites_count":111,"utc_offset":null,"time_zone":null,"geo_enabled":true,"verified":false,"statuses_count":5116,"lang":"en","contributors_enabled":false,"is_translator":false,"is_translation_enabled":false,"profile_background_color":"C0DEED","profile_background_image_url":"http:\/\/abs.twimg.com\/images\/themes\/theme1\/bg.png","profile_background_image_url_https":"https:\/\/abs.twimg.com\/images\/themes\/theme1\/bg.png","profile_background_tile":false,"profile_image_url":"http:\/\/pbs.twimg.com\/profile_images\/453762715795087360\/NnhDfmCQ_normal.jpeg","profile_image_url_https":"https:\/\/pbs.twimg.com\/profile_images\/453762715795087360\/NnhDfmCQ_normal.jpeg","profile_banner_url":"https:\/\/pbs.twimg.com\/profile_banners\/452654636\/1384733932","profile_link_color":"0084B4","profile_sidebar_border_color":"C0DEED","profile_sidebar_fill_color":"DDEEF6","profile_text_color":"333333","profile_use_background_image":true,"default_profile":true,"default_profile_image":false,"following":null,"follow_request_sent":null,"notifications":null},"geo":null,"coordinates":null,"place":null,"contributors":null,"retweeted_status":{"created_at":"Mon Jul 07 22:49:11 +0000 2014","id":486280797523935232,"id_str":"486280797523935232","text":"Where do I sign up at? http:\/\/t.co\/0hyA6fY94t","source":"\u003ca href=\"http:\/\/twitter.com\/download\/iphone\" rel=\"nofollow\"\u003eTwitter for iPhone\u003c\/a\u003e","truncated":false,"in_reply_to_status_id":null,"in_reply_to_status_id_str":null,"in_reply_to_user_id":null,"in_reply_to_user_id_str":null,"in_reply_to_screen_name":null,"user":{"id":429406814,"id_str":"429406814","name":"Evan","screen_name":"thatboy_evan","location":"Houston\u27a1\ufe0fSan Marcos","url":null,"description":"Pride comes before the fall.Stay humble #TXST17","protected":false,"followers_count":558,"friends_count":550,"listed_count":2,"created_at":"Mon Dec 05 22:58:54 +0000 2011","favourites_count":1058,"utc_offset":null,"time_zone":null,"geo_enabled":true,"verified":false,"statuses_count":11380,"lang":"en","contributors_enabled":false,"is_translator":false,"is_translation_enabled":false,"profile_background_color":"131516","profile_background_image_url":"http:\/\/abs.twimg.com\/images\/themes\/theme14\/bg.gif","profile_background_image_url_https":"https:\/\/abs.twimg.com\/images\/themes\/theme14\/bg.gif","profile_background_tile":true,"profile_image_url":"http:\/\/pbs.twimg.com\/profile_images\/469800722364895232\/n9mjAh08_normal.jpeg","profile_image_url_https":"https:\/\/pbs.twimg.com\/profile_images\/469800722364895232\/n9mjAh08_normal.jpeg","profile_banner_url":"https:\/\/pbs.twimg.com\/profile_banners\/429406814\/1402374505","profile_link_color":"009999","profile_sidebar_border_color":"EEEEEE","profile_sidebar_fill_color":"EFEFEF","profile_text_color":"333333","profile_use_background_image":true,"default_profile":false,"default_profile_image":false,"following":null,"follow_request_sent":null,"notifications":null},"geo":null,"coordinates":null,"place":null,"contributors":null,"retweet_count":2,"favorite_count":5,"entities":{"hashtags":[],"symbols":[],"urls":[],"user_mentions":[],"media":[{"id":486280796798328832,"id_str":"486280796798328832","indices":[23,45],"media_url":"http:\/\/pbs.twimg.com\/media\/Br-dzupCIAAhUzr.jpg","media_url_https":"https:\/\/pbs.twimg.com\/media\/Br-dzupCIAAhUzr.jpg","url":"http:\/\/t.co\/0hyA6fY94t","display_url":"pic.twitter.com\/0hyA6fY94t","expanded_url":"http:\/\/twitter.com\/thatboy_evan\/status\/486280797523935232\/photo\/1","type":"photo","sizes":{"medium":{"w":480,"h":720,"resize":"fit"},"small":{"w":340,"h":510,"resize":"fit"},"large":{"w":480,"h":720,"resize":"fit"},"thumb":{"w":150,"h":150,"resize":"crop"}}}]},"favorited":false,"retweeted":false,"possibly_sensitive":false,"lang":"en"},"retweet_count":0,"favorite_count":0,"entities":{"hashtags":[],"symbols":[],"urls":[],"user_mentions":[{"screen_name":"thatboy_evan","name":"Evan","id":429406814,"id_str":"429406814","indices":[3,16]}],"media":[{"id":486280796798328832,"id_str":"486280796798328832","indices":[41,63],"media_url":"http:\/\/pbs.twimg.com\/media\/Br-dzupCIAAhUzr.jpg","media_url_https":"https:\/\/pbs.twimg.com\/media\/Br-dzupCIAAhUzr.jpg","url":"http:\/\/t.co\/0hyA6fY94t","display_url":"pic.twitter.com\/0hyA6fY94t","expanded_url":"http:\/\/twitter.com\/thatboy_evan\/status\/486280797523935232\/photo\/1","type":"photo","sizes":{"medium":{"w":480,"h":720,"resize":"fit"},"small":{"w":340,"h":510,"resize":"fit"},"large":{"w":480,"h":720,"resize":"fit"},"thumb":{"w":150,"h":150,"resize":"crop"}},"source_status_id":486280797523935232,"source_status_id_str":"486280797523935232"}]},"favorited":false,"retweeted":false,"possibly_sensitive":false,"filter_level":"medium","lang":"en"}
